{   "response_code": 0,
    "results":[
       {
          "category":"Entertainment: Video Games",
          "type":"boolean",
          "difficulty":"hard",
          "question":"Unturned originally started as a Roblox game.",
          "correct_answer":"True",
          "incorrect_answers":[
             "False"
          ]
       },
       {
          "category":"History",
          "type":"boolean",
          "difficulty":"hard",
          "question":"The fourth funnel of the RMS Titanic was fake designed to make the ship look more powerful and symmetrical.",
          "correct_answer":"True",
          "incorrect_answers":[
             "False"
          ]
       },
       {
          "category":"Entertainment: Video Games",
          "type":"boolean",
          "difficulty":"hard",
          "question":"TF2: Sentry rocket damage falloff is calculated based on the distance between the sentry and the enemy, not the engineer and the enemy",
          "correct_answer":"False",
          "incorrect_answers":[
             "True"
          ]
       },
       {
          "category":"Science: Computers",
          "type":"boolean",
          "difficulty":"hard",
          "question":"DHCP stands for Dynamic Host Configuration Port.",
          "correct_answer":"False",
          "incorrect_answers":[
             "True"
          ]
       },
       {
          "category":"Entertainment: Film",
          "type":"boolean",
          "difficulty":"hard",
          "question":"&quot;Cube&quot;, &quot;Cube 2: Hypercube&quot; and &quot;Cube Zero&quot; were directed by the same person.",
          "correct_answer":"False",
          "incorrect_answers":[
             "True"
          ]
       },
       {
          "category":"Politics",
          "type":"boolean",
          "difficulty":"hard",
          "question":"Joko Widodo has appeared in the cover of a TIME magazine.",
          "correct_answer":"True",
          "incorrect_answers":[
             "False"
          ]
       },
       {
          "category":"Politics",
          "type":"boolean",
          "difficulty":"hard",
          "question":"Nazi Germany surrendered on Harry Truman&#039;s birthday while he was president.",
          "correct_answer":"True",
          "incorrect_answers":[
             "False"
          ]
       },
       {
          "category":"Entertainment: Board Games",
          "type":"boolean",
          "difficulty":"hard",
          "question":"The board game Go has more possible legal positions than the number of atoms in the visible universe.",
          "correct_answer":"True",
          "incorrect_answers":[
             "False"
          ]
       },
       {
          "category":"Science: Mathematics",
          "type":"boolean",
          "difficulty":"hard",
          "question":"In Topology, the complement of an open set is a closed set.",
          "correct_answer":"True",
          "incorrect_answers":[
             "False"
          ]
       },
       {
          "category":"Entertainment: Music",
          "type":"boolean",
          "difficulty":"hard",
          "question":"Pete Townshend&#039;s solo album, &quot;White City: A Novel&quot;, is set in the metropolitan area of Chicago.",
          "correct_answer":"False",
          "incorrect_answers":[
             "True"
          ]
       }
    ]
 }